…
+          topic = reorder(topic, gamma))
Error in is.data.frame(y) : object 'top_terms' not found
Calls: %>% ... auto_copy -> same_src -> same_src.data.frame -> is.data.frame
> gamma_terms
Error: object 'gamma_terms' not found
> 
> ## write_csv(gamma_terms, "STM Topic Gamma Values.csv") #SEND TO ME
> 
> stm_classifications2 <- td_gamma %>%
+   group_by(document) %>%
+   top_n(1, gamma) %>%
+   ungroup() %>%
+   arrange(topic)
> stm_classifications2
# A tibble: 482 x 3
   document                                      topic gamma
   <chr>                                         <int> <dbl>
 1 News Local/AL_Birmingham News17.txt               1 0.998
 2 News Local/AL_Birmingham News18.txt               1 0.998
 3 News Local/AR_Arkansas Democrat-Gazette27.txt     1 0.999
 4 News Local/CA_LA Times1.txt                       1 0.999
 5 News Local/CA_LA Times14.txt                      1 0.999
 6 News Local/CA_LA Times15.txt                      1 0.999
 7 News Local/CA_LA Times16.txt                      1 0.999
 8 News Local/CA_LA Times18.txt                      1 0.999
 9 News Local/CA_LA Times2.txt                       1 0.999
10 News Local/CA_LA Times34.txt                      1 0.999
# … with 472 more rows
…
